{
  "contractName": "ERC165",
  "abi": [
    {
      "inputs": [
        {
          "internalType": "bytes4",
          "name": "interfaceId",
          "type": "bytes4"
        }
      ],
      "name": "supportsInterface",
      "outputs": [
        {
          "internalType": "bool",
          "name": "",
          "type": "bool"
        }
      ],
      "stateMutability": "view",
      "type": "function"
    }
  ],
  "metadata": "{\"compiler\":{\"version\":\"0.8.4+commit.c7e474f2\"},\"language\":\"Solidity\",\"output\":{\"abi\":[{\"inputs\":[{\"internalType\":\"bytes4\",\"name\":\"interfaceId\",\"type\":\"bytes4\"}],\"name\":\"supportsInterface\",\"outputs\":[{\"internalType\":\"bool\",\"name\":\"\",\"type\":\"bool\"}],\"stateMutability\":\"view\",\"type\":\"function\"}],\"devdoc\":{\"details\":\"Implementation of the {IERC165} interface. Contracts that want to implement ERC165 should inherit from this contract and override {supportsInterface} to check for the additional interface id that will be supported. For example: ```solidity function supportsInterface(bytes4 interfaceId) public view virtual override returns (bool) {     return interfaceId == type(MyInterface).interfaceId || super.supportsInterface(interfaceId); } ``` Alternatively, {ERC165Storage} provides an easier to use but more expensive implementation.\",\"kind\":\"dev\",\"methods\":{\"supportsInterface(bytes4)\":{\"details\":\"See {IERC165-supportsInterface}.\"}},\"version\":1},\"userdoc\":{\"kind\":\"user\",\"methods\":{},\"version\":1}},\"settings\":{\"compilationTarget\":{\"/media/snowman/b3db83e2-fb87-46a1-bcf8-0d77015a3479/luiz/Udacity/Projects/project02/udacity_project_2/backend/node_modules/@openzeppelin/contracts/utils/introspection/ERC165.sol\":\"ERC165\"},\"evmVersion\":\"istanbul\",\"libraries\":{},\"metadata\":{\"bytecodeHash\":\"ipfs\"},\"optimizer\":{\"enabled\":false,\"runs\":200},\"remappings\":[]},\"sources\":{\"/media/snowman/b3db83e2-fb87-46a1-bcf8-0d77015a3479/luiz/Udacity/Projects/project02/udacity_project_2/backend/node_modules/@openzeppelin/contracts/utils/introspection/ERC165.sol\":{\"keccak256\":\"0x5718c5df9bd67ac68a796961df938821bb5dc0cd4c6118d77e9145afb187409b\",\"license\":\"MIT\",\"urls\":[\"bzz-raw://d10e1d9b26042424789246603906ad06143bf9a928f4e99de8b5e3bdc662f549\",\"dweb:/ipfs/Qmejonoaj5MLekPus229rJQHcC6E9dz2xorjHJR84fMfmn\"]},\"/media/snowman/b3db83e2-fb87-46a1-bcf8-0d77015a3479/luiz/Udacity/Projects/project02/udacity_project_2/backend/node_modules/@openzeppelin/contracts/utils/introspection/IERC165.sol\":{\"keccak256\":\"0xa28007762d9da9db878dd421960c8cb9a10471f47ab5c1b3309bfe48e9e79ff4\",\"license\":\"MIT\",\"urls\":[\"bzz-raw://796ab6e88af7bf0e78def0f059310c903af6a312b565344e0ff524a0f26e81c6\",\"dweb:/ipfs/QmcsVgLgzWdor3UnAztUkXKNGcysm1MPneWksF72AvnwBx\"]}},\"version\":1}",
  "bytecode": "0x",
  "deployedBytecode": "0x",
  "immutableReferences": {},
  "sourceMap": "",
  "deployedSourceMap": "",
  "source": "// SPDX-License-Identifier: MIT\n\npragma solidity ^0.8.0;\n\nimport \"./IERC165.sol\";\n\n/**\n * @dev Implementation of the {IERC165} interface.\n *\n * Contracts that want to implement ERC165 should inherit from this contract and override {supportsInterface} to check\n * for the additional interface id that will be supported. For example:\n *\n * ```solidity\n * function supportsInterface(bytes4 interfaceId) public view virtual override returns (bool) {\n *     return interfaceId == type(MyInterface).interfaceId || super.supportsInterface(interfaceId);\n * }\n * ```\n *\n * Alternatively, {ERC165Storage} provides an easier to use but more expensive implementation.\n */\nabstract contract ERC165 is IERC165 {\n    /**\n     * @dev See {IERC165-supportsInterface}.\n     */\n    function supportsInterface(bytes4 interfaceId) public view virtual override returns (bool) {\n        return interfaceId == type(IERC165).interfaceId;\n    }\n}\n",
  "sourcePath": "/media/snowman/b3db83e2-fb87-46a1-bcf8-0d77015a3479/luiz/Udacity/Projects/project02/udacity_project_2/backend/node_modules/@openzeppelin/contracts/utils/introspection/ERC165.sol",
  "ast": {
    "absolutePath": "/media/snowman/b3db83e2-fb87-46a1-bcf8-0d77015a3479/luiz/Udacity/Projects/project02/udacity_project_2/backend/node_modules/@openzeppelin/contracts/utils/introspection/ERC165.sol",
    "exportedSymbols": {
      "ERC165": [
        1524
      ],
      "IERC165": [
        1536
      ]
    },
    "id": 1525,
    "license": "MIT",
    "nodeType": "SourceUnit",
    "nodes": [
      {
        "id": 1502,
        "literals": [
          "solidity",
          "^",
          "0.8",
          ".0"
        ],
        "nodeType": "PragmaDirective",
        "src": "33:23:7"
      },
      {
        "absolutePath": "/media/snowman/b3db83e2-fb87-46a1-bcf8-0d77015a3479/luiz/Udacity/Projects/project02/udacity_project_2/backend/node_modules/@openzeppelin/contracts/utils/introspection/IERC165.sol",
        "file": "./IERC165.sol",
        "id": 1503,
        "nameLocation": "-1:-1:-1",
        "nodeType": "ImportDirective",
        "scope": 1525,
        "sourceUnit": 1537,
        "src": "58:23:7",
        "symbolAliases": [],
        "unitAlias": ""
      },
      {
        "abstract": true,
        "baseContracts": [
          {
            "baseName": {
              "id": 1505,
              "name": "IERC165",
              "nodeType": "IdentifierPath",
              "referencedDeclaration": 1536,
              "src": "688:7:7"
            },
            "id": 1506,
            "nodeType": "InheritanceSpecifier",
            "src": "688:7:7"
          }
        ],
        "contractDependencies": [],
        "contractKind": "contract",
        "documentation": {
          "id": 1504,
          "nodeType": "StructuredDocumentation",
          "src": "83:576:7",
          "text": " @dev Implementation of the {IERC165} interface.\n Contracts that want to implement ERC165 should inherit from this contract and override {supportsInterface} to check\n for the additional interface id that will be supported. For example:\n ```solidity\n function supportsInterface(bytes4 interfaceId) public view virtual override returns (bool) {\n     return interfaceId == type(MyInterface).interfaceId || super.supportsInterface(interfaceId);\n }\n ```\n Alternatively, {ERC165Storage} provides an easier to use but more expensive implementation."
        },
        "fullyImplemented": true,
        "id": 1524,
        "linearizedBaseContracts": [
          1524,
          1536
        ],
        "name": "ERC165",
        "nameLocation": "678:6:7",
        "nodeType": "ContractDefinition",
        "nodes": [
          {
            "baseFunctions": [
              1535
            ],
            "body": {
              "id": 1522,
              "nodeType": "Block",
              "src": "854:64:7",
              "statements": [
                {
                  "expression": {
                    "commonType": {
                      "typeIdentifier": "t_bytes4",
                      "typeString": "bytes4"
                    },
                    "id": 1520,
                    "isConstant": false,
                    "isLValue": false,
                    "isPure": false,
                    "lValueRequested": false,
                    "leftExpression": {
                      "id": 1515,
                      "name": "interfaceId",
                      "nodeType": "Identifier",
                      "overloadedDeclarations": [],
                      "referencedDeclaration": 1509,
                      "src": "871:11:7",
                      "typeDescriptions": {
                        "typeIdentifier": "t_bytes4",
                        "typeString": "bytes4"
                      }
                    },
                    "nodeType": "BinaryOperation",
                    "operator": "==",
                    "rightExpression": {
                      "expression": {
                        "arguments": [
                          {
                            "id": 1517,
                            "name": "IERC165",
                            "nodeType": "Identifier",
                            "overloadedDeclarations": [],
                            "referencedDeclaration": 1536,
                            "src": "891:7:7",
                            "typeDescriptions": {
                              "typeIdentifier": "t_type$_t_contract$_IERC165_$1536_$",
                              "typeString": "type(contract IERC165)"
                            }
                          }
                        ],
                        "expression": {
                          "argumentTypes": [
                            {
                              "typeIdentifier": "t_type$_t_contract$_IERC165_$1536_$",
                              "typeString": "type(contract IERC165)"
                            }
                          ],
                          "id": 1516,
                          "name": "type",
                          "nodeType": "Identifier",
                          "overloadedDeclarations": [],
                          "referencedDeclaration": 4294967269,
                          "src": "886:4:7",
                          "typeDescriptions": {
                            "typeIdentifier": "t_function_metatype_pure$__$returns$__$",
                            "typeString": "function () pure"
                          }
                        },
                        "id": 1518,
                        "isConstant": false,
                        "isLValue": false,
                        "isPure": true,
                        "kind": "functionCall",
                        "lValueRequested": false,
                        "names": [],
                        "nodeType": "FunctionCall",
                        "src": "886:13:7",
                        "tryCall": false,
                        "typeDescriptions": {
                          "typeIdentifier": "t_magic_meta_type_t_contract$_IERC165_$1536",
                          "typeString": "type(contract IERC165)"
                        }
                      },
                      "id": 1519,
                      "isConstant": false,
                      "isLValue": false,
                      "isPure": true,
                      "lValueRequested": false,
                      "memberName": "interfaceId",
                      "nodeType": "MemberAccess",
                      "src": "886:25:7",
                      "typeDescriptions": {
                        "typeIdentifier": "t_bytes4",
                        "typeString": "bytes4"
                      }
                    },
                    "src": "871:40:7",
                    "typeDescriptions": {
                      "typeIdentifier": "t_bool",
                      "typeString": "bool"
                    }
                  },
                  "functionReturnParameters": 1514,
                  "id": 1521,
                  "nodeType": "Return",
                  "src": "864:47:7"
                }
              ]
            },
            "documentation": {
              "id": 1507,
              "nodeType": "StructuredDocumentation",
              "src": "702:56:7",
              "text": " @dev See {IERC165-supportsInterface}."
            },
            "functionSelector": "01ffc9a7",
            "id": 1523,
            "implemented": true,
            "kind": "function",
            "modifiers": [],
            "name": "supportsInterface",
            "nameLocation": "772:17:7",
            "nodeType": "FunctionDefinition",
            "overrides": {
              "id": 1511,
              "nodeType": "OverrideSpecifier",
              "overrides": [],
              "src": "830:8:7"
            },
            "parameters": {
              "id": 1510,
              "nodeType": "ParameterList",
              "parameters": [
                {
                  "constant": false,
                  "id": 1509,
                  "mutability": "mutable",
                  "name": "interfaceId",
                  "nameLocation": "797:11:7",
                  "nodeType": "VariableDeclaration",
                  "scope": 1523,
                  "src": "790:18:7",
                  "stateVariable": false,
                  "storageLocation": "default",
                  "typeDescriptions": {
                    "typeIdentifier": "t_bytes4",
                    "typeString": "bytes4"
                  },
                  "typeName": {
                    "id": 1508,
                    "name": "bytes4",
                    "nodeType": "ElementaryTypeName",
                    "src": "790:6:7",
                    "typeDescriptions": {
                      "typeIdentifier": "t_bytes4",
                      "typeString": "bytes4"
                    }
                  },
                  "visibility": "internal"
                }
              ],
              "src": "789:20:7"
            },
            "returnParameters": {
              "id": 1514,
              "nodeType": "ParameterList",
              "parameters": [
                {
                  "constant": false,
                  "id": 1513,
                  "mutability": "mutable",
                  "name": "",
                  "nameLocation": "-1:-1:-1",
                  "nodeType": "VariableDeclaration",
                  "scope": 1523,
                  "src": "848:4:7",
                  "stateVariable": false,
                  "storageLocation": "default",
                  "typeDescriptions": {
                    "typeIdentifier": "t_bool",
                    "typeString": "bool"
                  },
                  "typeName": {
                    "id": 1512,
                    "name": "bool",
                    "nodeType": "ElementaryTypeName",
                    "src": "848:4:7",
                    "typeDescriptions": {
                      "typeIdentifier": "t_bool",
                      "typeString": "bool"
                    }
                  },
                  "visibility": "internal"
                }
              ],
              "src": "847:6:7"
            },
            "scope": 1524,
            "src": "763:155:7",
            "stateMutability": "view",
            "virtual": true,
            "visibility": "public"
          }
        ],
        "scope": 1525,
        "src": "660:260:7",
        "usedErrors": []
      }
    ],
    "src": "33:888:7"
  },
  "legacyAST": {
    "absolutePath": "/media/snowman/b3db83e2-fb87-46a1-bcf8-0d77015a3479/luiz/Udacity/Projects/project02/udacity_project_2/backend/node_modules/@openzeppelin/contracts/utils/introspection/ERC165.sol",
    "exportedSymbols": {
      "ERC165": [
        1524
      ],
      "IERC165": [
        1536
      ]
    },
    "id": 1525,
    "license": "MIT",
    "nodeType": "SourceUnit",
    "nodes": [
      {
        "id": 1502,
        "literals": [
          "solidity",
          "^",
          "0.8",
          ".0"
        ],
        "nodeType": "PragmaDirective",
        "src": "33:23:7"
      },
      {
        "absolutePath": "/media/snowman/b3db83e2-fb87-46a1-bcf8-0d77015a3479/luiz/Udacity/Projects/project02/udacity_project_2/backend/node_modules/@openzeppelin/contracts/utils/introspection/IERC165.sol",
        "file": "./IERC165.sol",
        "id": 1503,
        "nameLocation": "-1:-1:-1",
        "nodeType": "ImportDirective",
        "scope": 1525,
        "sourceUnit": 1537,
        "src": "58:23:7",
        "symbolAliases": [],
        "unitAlias": ""
      },
      {
        "abstract": true,
        "baseContracts": [
          {
            "baseName": {
              "id": 1505,
              "name": "IERC165",
              "nodeType": "IdentifierPath",
              "referencedDeclaration": 1536,
              "src": "688:7:7"
            },
            "id": 1506,
            "nodeType": "InheritanceSpecifier",
            "src": "688:7:7"
          }
        ],
        "contractDependencies": [],
        "contractKind": "contract",
        "documentation": {
          "id": 1504,
          "nodeType": "StructuredDocumentation",
          "src": "83:576:7",
          "text": " @dev Implementation of the {IERC165} interface.\n Contracts that want to implement ERC165 should inherit from this contract and override {supportsInterface} to check\n for the additional interface id that will be supported. For example:\n ```solidity\n function supportsInterface(bytes4 interfaceId) public view virtual override returns (bool) {\n     return interfaceId == type(MyInterface).interfaceId || super.supportsInterface(interfaceId);\n }\n ```\n Alternatively, {ERC165Storage} provides an easier to use but more expensive implementation."
        },
        "fullyImplemented": true,
        "id": 1524,
        "linearizedBaseContracts": [
          1524,
          1536
        ],
        "name": "ERC165",
        "nameLocation": "678:6:7",
        "nodeType": "ContractDefinition",
        "nodes": [
          {
            "baseFunctions": [
              1535
            ],
            "body": {
              "id": 1522,
              "nodeType": "Block",
              "src": "854:64:7",
              "statements": [
                {
                  "expression": {
                    "commonType": {
                      "typeIdentifier": "t_bytes4",
                      "typeString": "bytes4"
                    },
                    "id": 1520,
                    "isConstant": false,
                    "isLValue": false,
                    "isPure": false,
                    "lValueRequested": false,
                    "leftExpression": {
                      "id": 1515,
                      "name": "interfaceId",
                      "nodeType": "Identifier",
                      "overloadedDeclarations": [],
                      "referencedDeclaration": 1509,
                      "src": "871:11:7",
                      "typeDescriptions": {
                        "typeIdentifier": "t_bytes4",
                        "typeString": "bytes4"
                      }
                    },
                    "nodeType": "BinaryOperation",
                    "operator": "==",
                    "rightExpression": {
                      "expression": {
                        "arguments": [
                          {
                            "id": 1517,
                            "name": "IERC165",
                            "nodeType": "Identifier",
                            "overloadedDeclarations": [],
                            "referencedDeclaration": 1536,
                            "src": "891:7:7",
                            "typeDescriptions": {
                              "typeIdentifier": "t_type$_t_contract$_IERC165_$1536_$",
                              "typeString": "type(contract IERC165)"
                            }
                          }
                        ],
                        "expression": {
                          "argumentTypes": [
                            {
                              "typeIdentifier": "t_type$_t_contract$_IERC165_$1536_$",
                              "typeString": "type(contract IERC165)"
                            }
                          ],
                          "id": 1516,
                          "name": "type",
                          "nodeType": "Identifier",
                          "overloadedDeclarations": [],
                          "referencedDeclaration": 4294967269,
                          "src": "886:4:7",
                          "typeDescriptions": {
                            "typeIdentifier": "t_function_metatype_pure$__$returns$__$",
                            "typeString": "function () pure"
                          }
                        },
                        "id": 1518,
                        "isConstant": false,
                        "isLValue": false,
                        "isPure": true,
                        "kind": "functionCall",
                        "lValueRequested": false,
                        "names": [],
                        "nodeType": "FunctionCall",
                        "src": "886:13:7",
                        "tryCall": false,
                        "typeDescriptions": {
                          "typeIdentifier": "t_magic_meta_type_t_contract$_IERC165_$1536",
                          "typeString": "type(contract IERC165)"
                        }
                      },
                      "id": 1519,
                      "isConstant": false,
                      "isLValue": false,
                      "isPure": true,
                      "lValueRequested": false,
                      "memberName": "interfaceId",
                      "nodeType": "MemberAccess",
                      "src": "886:25:7",
                      "typeDescriptions": {
                        "typeIdentifier": "t_bytes4",
                        "typeString": "bytes4"
                      }
                    },
                    "src": "871:40:7",
                    "typeDescriptions": {
                      "typeIdentifier": "t_bool",
                      "typeString": "bool"
                    }
                  },
                  "functionReturnParameters": 1514,
                  "id": 1521,
                  "nodeType": "Return",
                  "src": "864:47:7"
                }
              ]
            },
            "documentation": {
              "id": 1507,
              "nodeType": "StructuredDocumentation",
              "src": "702:56:7",
              "text": " @dev See {IERC165-supportsInterface}."
            },
            "functionSelector": "01ffc9a7",
            "id": 1523,
            "implemented": true,
            "kind": "function",
            "modifiers": [],
            "name": "supportsInterface",
            "nameLocation": "772:17:7",
            "nodeType": "FunctionDefinition",
            "overrides": {
              "id": 1511,
              "nodeType": "OverrideSpecifier",
              "overrides": [],
              "src": "830:8:7"
            },
            "parameters": {
              "id": 1510,
              "nodeType": "ParameterList",
              "parameters": [
                {
                  "constant": false,
                  "id": 1509,
                  "mutability": "mutable",
                  "name": "interfaceId",
                  "nameLocation": "797:11:7",
                  "nodeType": "VariableDeclaration",
                  "scope": 1523,
                  "src": "790:18:7",
                  "stateVariable": false,
                  "storageLocation": "default",
                  "typeDescriptions": {
                    "typeIdentifier": "t_bytes4",
                    "typeString": "bytes4"
                  },
                  "typeName": {
                    "id": 1508,
                    "name": "bytes4",
                    "nodeType": "ElementaryTypeName",
                    "src": "790:6:7",
                    "typeDescriptions": {
                      "typeIdentifier": "t_bytes4",
                      "typeString": "bytes4"
                    }
                  },
                  "visibility": "internal"
                }
              ],
              "src": "789:20:7"
            },
            "returnParameters": {
              "id": 1514,
              "nodeType": "ParameterList",
              "parameters": [
                {
                  "constant": false,
                  "id": 1513,
                  "mutability": "mutable",
                  "name": "",
                  "nameLocation": "-1:-1:-1",
                  "nodeType": "VariableDeclaration",
                  "scope": 1523,
                  "src": "848:4:7",
                  "stateVariable": false,
                  "storageLocation": "default",
                  "typeDescriptions": {
                    "typeIdentifier": "t_bool",
                    "typeString": "bool"
                  },
                  "typeName": {
                    "id": 1512,
                    "name": "bool",
                    "nodeType": "ElementaryTypeName",
                    "src": "848:4:7",
                    "typeDescriptions": {
                      "typeIdentifier": "t_bool",
                      "typeString": "bool"
                    }
                  },
                  "visibility": "internal"
                }
              ],
              "src": "847:6:7"
            },
            "scope": 1524,
            "src": "763:155:7",
            "stateMutability": "view",
            "virtual": true,
            "visibility": "public"
          }
        ],
        "scope": 1525,
        "src": "660:260:7",
        "usedErrors": []
      }
    ],
    "src": "33:888:7"
  },
  "compiler": {
    "name": "solc",
    "version": "0.8.4+commit.c7e474f2.Emscripten.clang"
  },
  "networks": {},
  "schemaVersion": "3.2.3",
  "updatedAt": "2021-05-28T09:42:00.381Z",
  "devdoc": {
    "details": "Implementation of the {IERC165} interface. Contracts that want to implement ERC165 should inherit from this contract and override {supportsInterface} to check for the additional interface id that will be supported. For example: ```solidity function supportsInterface(bytes4 interfaceId) public view virtual override returns (bool) {     return interfaceId == type(MyInterface).interfaceId || super.supportsInterface(interfaceId); } ``` Alternatively, {ERC165Storage} provides an easier to use but more expensive implementation.",
    "kind": "dev",
    "methods": {
      "supportsInterface(bytes4)": {
        "details": "See {IERC165-supportsInterface}."
      }
    },
    "version": 1
  },
  "userdoc": {
    "kind": "user",
    "methods": {},
    "version": 1
  }
}